<svg width="74" height="32" viewBox="0 0 74 32" fill="none" xmlns="http://www.w3.org/2000/svg">
<g filter="url(#filter0_d)">
<path fill-rule="evenodd" clip-rule="evenodd" d="M13.3743 16.9244L21.1991 12.5781C22.0618 12.099 22.0618 10.901 21.1991 10.4219L15.9224 7.49094H13.3743V16.9244ZM10.9581 18.2665V7.49094H8L8 17.7532C8 18.7116 9.07836 19.3105 9.94105 18.8314L10.9581 18.2665ZM8 5.49711H12.3328L9.94105 4.16865C9.07836 3.68947 8 4.28844 8 5.24678L8 5.49711Z" fill="#5C63AB"/>
</g>
<g filter="url(#filter1_d)">
<path d="M33.1348 19H31.0342V7.95215H27.2549V6.15039H36.9141V7.95215H33.1348V19ZM43.6025 9.10352C44.0186 9.10352 44.3613 9.13281 44.6309 9.19141L44.4287 11.1162C44.1357 11.0459 43.8311 11.0107 43.5146 11.0107C42.6885 11.0107 42.0176 11.2803 41.502 11.8193C40.9922 12.3584 40.7373 13.0586 40.7373 13.9199V19H38.6719V9.2793H40.2891L40.5615 10.9932H40.667C40.9893 10.4131 41.4082 9.95312 41.9238 9.61328C42.4453 9.27344 43.0049 9.10352 43.6025 9.10352ZM55.0635 14.1221C55.0635 15.71 54.6562 16.9492 53.8418 17.8398C53.0273 18.7305 51.8936 19.1758 50.4404 19.1758C49.5322 19.1758 48.7295 18.9707 48.0322 18.5605C47.335 18.1504 46.7988 17.5615 46.4238 16.7939C46.0488 16.0264 45.8613 15.1357 45.8613 14.1221C45.8613 12.5459 46.2656 11.3154 47.0742 10.4307C47.8828 9.5459 49.0225 9.10352 50.4932 9.10352C51.8994 9.10352 53.0127 9.55762 53.833 10.4658C54.6533 11.3682 55.0635 12.5869 55.0635 14.1221ZM47.9883 14.1221C47.9883 16.3662 48.8174 17.4883 50.4756 17.4883C52.1162 17.4883 52.9365 16.3662 52.9365 14.1221C52.9365 11.9014 52.1104 10.791 50.458 10.791C49.5908 10.791 48.9609 11.0781 48.5684 11.6523C48.1816 12.2266 47.9883 13.0498 47.9883 14.1221ZM59.6074 14.0342L56.3467 9.2793H58.7021L60.917 12.6807L63.1494 9.2793H65.4873L62.2178 14.0342L65.6543 19H63.3164L60.917 15.3613L58.5264 19H56.1885L59.6074 14.0342Z" fill="#5C63AB"/>
</g>
<defs>
<filter id="filter0_d" x="0" y="0" width="29.8462" height="31" filterUnits="userSpaceOnUse" color-interpolation-filters="sRGB">
<feFlood flood-opacity="0" result="BackgroundImageFix"/>
<feColorMatrix in="SourceAlpha" type="matrix" values="0 0 0 0 0 0 0 0 0 0 0 0 0 0 0 0 0 0 127 0"/>
<feOffset dy="4"/>
<feGaussianBlur stdDeviation="4"/>
<feColorMatrix type="matrix" values="0 0 0 0 0 0 0 0 0 0 0 0 0 0 0 0 0 0 0.1 0"/>
<feBlend mode="normal" in2="BackgroundImageFix" result="effect1_dropShadow"/>
<feBlend mode="normal" in="SourceGraphic" in2="effect1_dropShadow" result="shape"/>
</filter>
<filter id="filter1_d" x="19.2549" y="2.15039" width="54.3994" height="29.0254" filterUnits="userSpaceOnUse" color-interpolation-filters="sRGB">
<feFlood flood-opacity="0" result="BackgroundImageFix"/>
<feColorMatrix in="SourceAlpha" type="matrix" values="0 0 0 0 0 0 0 0 0 0 0 0 0 0 0 0 0 0 127 0"/>
<feOffset dy="4"/>
<feGaussianBlur stdDeviation="4"/>
<feColorMatrix type="matrix" values="0 0 0 0 0 0 0 0 0 0 0 0 0 0 0 0 0 0 0.1 0"/>
<feBlend mode="normal" in2="BackgroundImageFix" result="effect1_dropShadow"/>
<feBlend mode="normal" in="SourceGraphic" in2="effect1_dropShadow" result="shape"/>
</filter>
</defs>
</svg>
